{
  "IcoMoonType": "selection",
  "icons": [
    {
      "icon": {
        "paths": [
          "M512 1024c-282.77 0-512-229.23-512-512s229.23-512 512-512c282.77 0 512 229.23 512 512s-229.23 512-512 512zM512 887.467c207.365 0 375.467-168.102 375.467-375.467s-168.102-375.467-375.467-375.467c-207.365 0-375.467 168.102-375.467 375.467s168.102 375.467 375.467 375.467zM561.778 327.111v174.44l124.353 59.873c33.97 16.356 48.249 57.153 31.893 91.124s-57.153 48.249-91.124 31.893l-163.004-78.483c-23.629-11.377-38.652-35.283-38.652-61.508v-217.339c0-37.703 30.564-68.267 68.267-68.267s68.267 30.564 68.267 68.267z"
        ],
        "attrs": [],
        "isMulticolor": false,
        "isMulticolor2": false,
        "grid": 0,
        "tags": [
          "pending"
        ],
        "colorPermutations": {}
      },
      "attrs": [],
      "properties": {
        "order": 3,
        "id": 33,
        "name": "pending",
        "prevSize": 32,
        "code": 59681
      },
      "setIdx": 0,
      "setId": 0,
      "iconIdx": 0
    },
    {
      "icon": {
        "paths": [
          "M512 0c-281.6 0-512 230.4-512 512s230.4 512 512 512 512-230.4 512-512-230.4-512-512-512zM512 942.080c-240.64 0-430.080-194.56-430.080-430.080s189.44-430.080 430.080-430.080 430.080 189.44 430.080 430.080-189.44 430.080-430.080 430.080z",
          "M583.68 609.28c0-15.36-5.12-30.72-15.36-40.96-10.24-15.36-30.72-25.6-56.32-35.84-40.96-15.36-71.68-30.72-97.28-51.2s-30.72-46.080-30.72-81.92c0-35.84 10.24-61.44 30.72-81.92s46.080-35.84 81.92-35.84v-66.56h46.080v66.56c35.84 5.12 61.44 20.48 81.92 40.96s30.72 51.2 30.72 92.16v0h-71.68c0-25.6-5.12-40.96-15.36-56.32s-30.72-20.48-51.2-20.48c-20.48 0-35.84 5.12-46.080 15.36s-15.36 25.6-15.36 46.080c0 15.36 5.12 30.72 15.36 40.96s30.72 20.48 61.44 30.72c40.96 15.36 71.68 30.72 97.28 51.2s30.72 46.080 30.72 81.92c0 35.84-10.24 61.44-30.72 81.92s-51.2 30.72-87.040 35.84v56.32h-51.2v-51.2c-35.84-5.12-66.56-15.36-87.040-35.84s-35.84-56.32-35.84-97.28v0h71.68c0 25.6 5.12 46.080 20.48 61.44s30.72 15.36 51.2 15.36c20.48 0 40.96-5.12 51.2-15.36s20.48-30.72 20.48-46.080z"
        ],
        "attrs": [
          {},
          {}
        ],
        "isMulticolor": false,
        "isMulticolor2": false,
        "tags": [
          "circle-pay"
        ],
        "grid": 0
      },
      "attrs": [
        {},
        {}
      ],
      "properties": {
        "order": 3,
        "id": 0,
        "name": "circle-pay",
        "prevSize": 32,
        "code": 59678
      },
      "setIdx": 0,
      "setId": 0,
      "iconIdx": 1
    },
    {
      "icon": {
        "paths": [
          "M1110.595 142.373v306.653c0 71.187-60.235 131.422-131.422 131.422h-350.461c-5.476 0-10.952 0-16.428 0s-10.952 0-10.952 0c0 0-5.476 5.476-10.952 10.952 0 0-5.476 5.476-5.476 5.476l-98.567 93.091c-5.476 5.476-21.904 10.952-27.38 5.476-10.952-5.476-16.428-16.428-16.428-27.38v-290.226h-295.702c-43.807 0-76.663 38.332-76.663 76.663v306.653c0 43.807 32.856 76.663 76.663 76.663h394.268c5.476 0 10.952 5.476 16.428 5.476l82.139 76.663v-257.369c0-16.428 10.952-27.38 27.38-27.38s27.38 10.952 27.38 27.38v317.605c0 10.952-5.476 21.904-16.428 27.38-5.476 0-5.476 0-10.952 0s-10.952 0-16.428-5.476l-120.471-109.519h-383.317c-71.187 0-131.422-60.235-131.422-131.422v-306.653c0-71.187 60.235-131.422 131.422-131.422h284.75v-180.706c0-71.187 60.235-131.422 131.422-131.422h416.172c71.187 0 131.422 60.235 131.422 131.422zM1055.835 142.373c0-43.807-32.856-76.663-76.663-76.663h-416.172c-43.807 0-76.663 32.856-76.663 76.663v459.98l54.759-49.283c0 0 5.476-5.476 5.476-5.476 27.38-21.904 32.856-27.38 65.711-27.38 5.476 0 10.952 0 16.428 0h350.461c43.807 0 76.663-32.856 76.663-76.663v-301.177z",
          "M667.043 1013.049c-5.476 0-16.428-5.476-21.904-10.952l-120.471-109.519h-383.317c-76.663 0-136.898-60.235-136.898-136.898v-301.177c0-76.663 60.235-136.898 136.898-136.898h279.274v-175.23c5.476-76.663 65.711-136.898 142.374-136.898h416.172c76.663 0 136.898 60.235 136.898 136.898v306.653c0 76.663-60.235 136.898-136.898 136.898h-350.461c-5.476 0-10.952 0-16.428 0s-10.952 0-10.952 0-10.952 5.476-10.952 10.952l-109.519 98.567c-10.952 10.952-21.904 10.952-32.856 5.476s-21.904-16.428-21.904-27.38v-290.226h-279.274c-38.332 0-71.187 32.856-71.187 71.187v306.653c0 38.332 32.856 71.187 71.187 71.187h394.268c5.476 0 16.428 5.476 21.904 10.952l76.663 71.187v-246.417c0-16.428 16.428-32.856 32.856-32.856s32.856 16.428 32.856 32.856v317.605c0 10.952-5.476 21.904-16.428 27.38-10.952 0-16.428 0-21.904 0zM146.828 328.556c-71.187 0-125.947 54.759-125.947 125.947v306.653c0 71.187 54.759 125.947 125.947 125.947h383.317l120.471 109.519c5.476 5.476 16.428 5.476 27.38 5.476 10.952-5.476 10.952-10.952 10.952-21.904v-317.605c0-10.952-10.952-21.904-21.904-21.904s-21.904 10.952-21.904 21.904v268.322l-87.615-82.139c-5.476-5.476-10.952-5.476-16.428-5.476h-394.268c-43.807 0-82.139-38.332-82.139-82.139v-306.653c0-43.807 38.332-82.139 82.139-82.139h290.226v295.702c0 10.952 5.476 16.428 16.428 21.904s16.428 0 27.38-5.476l104.043-98.567c5.476-5.476 10.952-10.952 16.428-10.952v0c0 0 5.476 0 10.952 0s10.952 0 16.428 0h350.461c71.187 0 125.947-54.759 125.947-125.947v-306.653c0-71.187-54.759-125.947-125.947-125.947h-416.172c-71.187 0-125.947 54.759-125.947 125.947v186.182h-290.226zM480.861 613.305v-470.931c0-43.807 38.332-82.139 82.139-82.139h416.172c43.807 0 82.139 32.856 82.139 82.139v306.653c0 43.807-38.332 82.139-82.139 82.139h-350.461c-5.476 0-10.952 0-16.428 0-32.856 0-38.332 0-60.235 27.38 0 0 0 0-5.476 5.476 0 0 0 0-5.476 5.476l-60.235 43.807zM563 71.186c-38.332 0-76.663 32.856-76.663 71.187v454.504l49.283-43.807c0 0 0 0 5.476-5.476 0 0 0 0 5.476-5.476 21.904-21.904 32.856-27.38 60.235-27.38 0 0 5.476 0 5.476 0 5.476 0 10.952 0 16.428 0h350.461c38.332 0 71.187-32.856 71.187-71.187v-301.177c0-38.332-32.856-71.187-71.187-71.187h-416.172z",
          "M667.043 1018.525c-10.952 0-16.428-5.476-21.904-10.952l-114.995-109.519h-383.317c-76.663 0-136.898-60.235-136.898-136.898v-306.653c0-76.663 60.235-136.898 136.898-136.898h279.274v-175.23c0-76.663 60.235-136.898 136.898-136.898h416.172c76.663 0 136.898 60.235 136.898 136.898v306.653c0 76.663-60.235 136.898-136.898 136.898h-350.461c-5.476 0-10.952 0-16.428 0s-5.476 0-10.952 0-10.952 5.476-10.952 10.952l-109.519 98.567c-10.952 10.952-21.904 10.952-38.332 5.476-10.952-5.476-21.904-16.428-21.904-32.856v-279.274h-273.798c-38.332 0-71.187 32.856-71.187 71.187v306.653c0 38.332 32.856 71.187 71.187 71.187h394.268c5.476 0 16.428 5.476 21.904 10.952l71.187 65.711v-240.941c0-16.428 16.428-32.856 32.856-32.856s32.856 16.428 32.856 32.856v317.605c0 10.952-5.476 27.38-21.904 32.856 0-10.952-5.476-5.476-10.952-5.476zM146.828 334.032c-71.187 0-125.947 54.759-125.947 125.947v306.653c0 65.711 54.759 125.947 125.947 125.947h383.317l120.471 109.519c5.476 5.476 16.428 5.476 21.904 5.476 5.476-5.476 10.952-10.952 10.952-16.428v-317.605c0-10.952-10.952-21.904-21.904-21.904s-21.904 10.952-21.904 21.904v273.798l-93.091-87.615c-5.476-5.476-10.952-5.476-10.952-5.476h-388.792c-49.283 0-82.139-38.332-82.139-82.139v-317.605c0-43.807 38.332-82.139 82.139-82.139h290.226v295.702c0 5.476 5.476 16.428 10.952 16.428 5.476 5.476 16.428 0 21.904-5.476l104.043-98.567c5.476-5.476 10.952-10.952 16.428-10.952h5.476c0 0 10.952 0 16.428 0s10.952 0 16.428 0h350.461c65.711 0 125.947-54.759 125.947-125.947v-301.177c0-65.711-54.759-125.947-125.947-125.947h-416.172c-71.187 0-125.947 54.759-125.947 125.947v191.658h-290.226zM480.861 618.781v-476.407c0-43.807 38.332-82.139 87.615-82.139h416.172c43.807 0 82.139 38.332 82.139 82.139v306.653c0 43.807-38.332 82.139-82.139 82.139h-350.461c-5.476 0-10.952 0-16.428 0-32.856 0-32.856 0-60.235 21.904 0 0 0 0-5.476 5.476 0 0 0 0-5.476 5.476l-65.711 54.759zM563 71.186c-38.332 0-71.187 32.856-71.187 71.187v449.028l43.807-38.332c0 0 5.476 0 5.476-5.476 0 0 0 0 5.476 0 27.38-21.904 32.856-27.38 71.187-27.38 5.476 0 10.952 0 16.428 0h350.461c38.332 0 71.187-32.856 71.187-71.187v-306.653c0-38.332-32.856-71.187-71.187-71.187h-421.648z",
          "M667.043 1018.525c-10.952 0-16.428-5.476-27.38-10.952l-114.995-104.043h-377.841c-76.663 0-142.374-65.711-142.374-142.374v-306.653c0-76.663 65.711-142.374 142.374-142.374h273.798v-169.754c0-76.663 65.711-142.374 142.374-142.374h416.172c76.663 0 142.374 65.711 142.374 142.374v306.653c0 76.663-65.711 142.374-142.374 142.374h-350.461c-5.476 0-10.952 0-16.428 0v0c0 0-5.476 0-5.476 0-5.476 0-5.476 5.476-10.952 10.952l-109.519 98.567c-10.952 10.952-27.38 10.952-43.807 5.476s-21.904-21.904-21.904-32.856v-284.75h-273.798c-38.332 0-65.711 27.38-65.711 65.711v306.653c0 38.332 27.38 65.711 65.711 65.711h394.268c10.952 0 16.428 5.476 27.38 10.952l60.235 60.235v-235.465c0-21.904 16.428-38.332 38.332-38.332s38.332 16.428 38.332 38.332v317.605c0 16.428-10.952 27.38-21.904 32.856-5.476 5.476-10.952 5.476-16.428 5.476zM146.828 323.080c-71.187 0-131.422 60.235-131.422 131.422v306.653c0 71.187 60.235 131.422 136.898 131.422h383.317l114.995 109.519c10.952 10.952 21.904 10.952 32.856 5.476s16.428-16.428 16.428-27.38v-317.605c0-16.428-10.952-27.38-27.38-27.38s-27.38 10.952-27.38 27.38v251.893l-82.139-71.187c-5.476-5.476-10.952-10.952-21.904-10.952h-394.268c-43.807 0-76.663-32.856-76.663-71.187v-306.653c0-38.332 32.856-76.663 76.663-76.663h279.274v290.226c0 10.952 5.476 21.904 16.428 27.38s21.904 0 32.856-5.476l109.519-98.567c5.476-5.476 10.952-5.476 10.952-10.952v0 0c0 0 5.476 0 5.476 0v0c5.476 0 10.952 0 16.428 0h350.461c87.615 0 142.374-60.235 142.374-131.422v-306.653c0-71.187-54.759-131.422-131.422-131.422h-416.172c-71.187 0-131.422 60.235-131.422 131.422v180.706h-284.75zM667.043 1007.573c-5.476 0-10.952 0-16.428-5.476l-120.471-109.519h-383.317c-71.187-5.476-131.422-60.235-131.422-131.422v-306.653c0-71.187 60.235-131.422 131.422-131.422h284.75v-180.706c0-71.187 60.235-125.947 131.422-125.947h416.172c71.187 0 125.947 54.759 125.947 125.947v306.653c0 71.187-54.759 125.947-125.947 125.947h-350.461c-5.476 0-10.952 0-16.428 0s-10.952 0-10.952 0v0c0 0-5.476 5.476-10.952 10.952l-104.043 98.567c-5.476 5.476-16.428 5.476-27.38 5.476-10.952-5.476-16.428-10.952-16.428-21.904v-290.226h-295.702c-43.807 0-82.139 38.332-82.139 82.139v306.653c0 43.807 38.332 76.663 82.139 76.663h394.268c5.476 0 10.952 0 16.428 5.476l87.615 76.663v-262.845c0-10.952 10.952-21.904 21.904-21.904s21.904 10.952 21.904 21.904v317.605c0 10.952-5.476 16.428-16.428 21.904 0 5.476 0 5.476-5.476 5.476zM146.828 334.032c-65.711 0-120.471 54.759-120.471 120.471v306.653c0 65.711 54.759 120.471 120.471 120.471h388.792l5.476 5.476 120.471 109.519c0 0 5.476 0 10.952 0s10.952-10.952 10.952-16.428v-317.605c0-10.952-5.476-16.428-16.428-16.428s-16.428 5.476-16.428 16.428v284.75l-98.567-93.091c-5.476-5.476-5.476-5.476-10.952-5.476h-394.268c-49.283 0-87.615-38.332-87.615-87.615v-306.653c0-49.283 38.332-87.615 87.615-87.615h295.702v301.177c0 5.476 5.476 10.952 10.952 16.428 5.476 0 10.952 0 16.428-5.476l109.519-98.567c5.476-5.476 10.952-10.952 16.428-10.952h5.476c5.476 0 10.952 0 16.428 0s10.952 0 16.428 0h350.461c65.711 0 120.471-54.759 120.471-120.471v-306.653c0-65.711-54.759-120.471-120.471-120.471h-421.648c-65.711 0-120.471 54.759-120.471 120.471v191.658h-295.702zM475.385 629.733v-487.359c0-49.283 38.332-87.615 87.615-87.615h416.172c49.283 0 87.615 38.332 87.615 87.615v306.653c0 49.283-38.332 87.615-87.615 87.615h-350.461c-5.476 0-10.952 0-16.428 0-27.38 0-32.856 0-54.759 21.904 0 0 0 0-5.476 5.476l-5.476 5.476-71.187 60.235zM563 65.71c-43.807 0-82.139 32.856-82.139 76.663v470.931l60.235-54.759c0 0 0 0 0 0v0c0 0 0 0 5.476-5.476 27.38-21.904 32.856-27.38 60.235-27.38 5.476 0 10.952 0 16.428 0h350.461c43.807 0 76.663-38.332 76.663-82.139v-301.177c0-43.807-32.856-76.663-76.663-76.663h-410.696zM486.337 602.353v-459.98c0-38.332 32.856-71.187 76.663-71.187h416.172c43.807 0 71.187 32.856 71.187 71.187v306.653c0 38.332-32.856 76.663-71.187 76.663h-350.461c-5.476 0-10.952 0-16.428 0 0 0-5.476 0-5.476 0-27.38 0-38.332 5.476-60.235 27.38 0 0 0 0-5.476 0 0 0-5.476 0-5.476 5.476l-49.283 43.807zM563 76.662c-38.332 0-65.711 27.38-65.711 65.711v438.076l38.332-32.856c0 0 0 0 5.476-5.476 0 0 0 0 5.476-5.476 27.38-21.904 32.856-27.38 65.711-27.38 0 0 5.476 0 5.476 0 5.476 0 10.952 0 16.428 0h350.461c38.332 0 65.711-27.38 65.711-65.711v-301.177c0-38.332-27.38-65.711-65.711-65.711h-421.648z"
        ],
        "width": 1126,
        "attrs": [
          {},
          {},
          {},
          {}
        ],
        "isMulticolor": false,
        "isMulticolor2": false,
        "tags": [
          "history"
        ],
        "grid": 0
      },
      "attrs": [
        {},
        {},
        {},
        {}
      ],
      "properties": {
        "order": 5,
        "id": 1,
        "name": "history",
        "prevSize": 32,
        "code": 59679
      },
      "setIdx": 0,
      "setId": 0,
      "iconIdx": 2
    },
    {
      "icon": {
        "paths": [
          "M512 0c-281.6 0-512 230.4-512 512s230.4 512 512 512 512-230.4 512-512-230.4-512-512-512zM512 942.080c-240.64 0-430.080-194.56-430.080-430.080s189.44-430.080 430.080-430.080 430.080 194.56 430.080 430.080-189.44 430.080-430.080 430.080z",
          "M481.28 706.56h61.44v61.44h-61.44v-61.44z",
          "M634.88 302.080c-15.36-15.36-30.72-25.6-51.2-30.72-20.48-10.24-40.96-15.36-71.68-15.36-20.48 0-46.080 5.12-66.56 10.24-15.36 10.24-35.84 20.48-51.2 35.84s-25.6 30.72-30.72 51.2c-10.24 20.48-10.24 30.72-10.24 61.44h66.56c0-30.72 10.24-56.32 25.6-76.8s35.84-30.72 66.56-30.72c30.72 0 51.2 10.24 66.56 20.48 15.36 15.36 20.48 35.84 20.48 61.44 0 20.48-5.12 35.84-20.48 51.2-10.24 15.36-25.6 30.72-40.96 46.080s-25.6 30.72-40.96 46.080-15.36 35.84-15.36 56.32v51.2h61.44v-25.6c0-15.36 0-30.72 10.24-40.96 5.12-10.24 15.36-25.6 25.6-35.84s20.48-20.48 30.72-30.72c10.24-10.24 20.48-20.48 30.72-30.72s15.36-20.48 25.6-35.84c5.12-15.36 10.24-30.72 10.24-46.080s-5.12-30.72-10.24-46.080c-10.24-20.48-15.36-35.84-30.72-46.080z"
        ],
        "attrs": [
          {},
          {},
          {}
        ],
        "isMulticolor": false,
        "isMulticolor2": false,
        "tags": [
          "circle-question"
        ],
        "grid": 0
      },
      "attrs": [
        {},
        {},
        {}
      ],
      "properties": {
        "order": 4,
        "id": 2,
        "name": "circle-question",
        "prevSize": 32,
        "code": 59680
      },
      "setIdx": 0,
      "setId": 0,
      "iconIdx": 3
    },
    {
      "icon": {
        "paths": [
          "M1035.628 231.984c0 127.98-100.845 231.879-225.394 231.879-124.344 0-225.189-103.898-225.189-231.879 0-128.191 100.845-231.984 225.189-231.984 124.549 0 225.394 103.793 225.394 231.984z",
          "M492.067 412.323c0 91.384-72.032 165.523-160.821 165.523-88.89 0-160.821-74.139-160.821-165.523 0-91.489 71.929-165.523 160.821-165.523 88.788 0 160.821 74.033 160.821 165.523z",
          "M818.817 569.181c-218.854 0-396.329 182.559-396.329 407.812v47.006h792.556v-47.006c0-225.254-177.27-407.812-396.227-407.812z",
          "M308.319 677.676c-166.644 0-301.717 139.022-301.717 310.539v35.754h333.902c0-202.328 62.938-302.757 78.571-324.421-34.331-13.987-71.623-21.874-110.756-21.874z",
          "M1145.821 412.323c0 91.384 72.032 165.523 160.922 165.523 88.788 0 160.922-74.139 160.922-165.523 0-91.489-72.134-165.523-160.922-165.523-88.89 0-160.922 74.033-160.922 165.523z",
          "M1329.682 677.676c166.644 0 301.717 139.022 301.717 310.539v35.754h-333.902c0-202.328-62.938-302.757-78.571-324.421 34.331-13.987 71.521-21.874 110.756-21.874z"
        ],
        "width": 1638,
        "attrs": [],
        "isMulticolor": false,
        "isMulticolor2": false,
        "colorPermutations": {},
        "tags": [
          "members"
        ],
        "grid": 0
      },
      "attrs": [],
      "properties": {
        "order": 8,
        "id": 3,
        "name": "members",
        "prevSize": 32,
        "code": 59676
      },
      "setIdx": 0,
      "setId": 0,
      "iconIdx": 4
    },
    {
      "icon": {
        "paths": [
          "M-0.002 827.958v-818.352h771.348v818.352h-771.348zM76.551 751.328h618.243v-665.245h-618.243v665.245z",
          "M38.274 220.356h694.718v-172.627h-694.718z",
          "M170.098 418.706h437.271v-90.639h-437.271z",
          "M874.447 277.572v660.27h-676.269v76.553h752.823v-736.823z"
        ],
        "width": 951,
        "attrs": [],
        "isMulticolor": false,
        "isMulticolor2": false,
        "colorPermutations": {},
        "tags": [
          "batch"
        ],
        "grid": 0
      },
      "attrs": [],
      "properties": {
        "order": 9,
        "id": 4,
        "name": "batch",
        "prevSize": 32,
        "code": 59677
      },
      "setIdx": 0,
      "setId": 0,
      "iconIdx": 5
    },
    {
      "icon": {
        "paths": [
          "M646.811 258.6c-57.943-67.586-144.817-9.644-144.817-9.644-183.432 120.687-390.993 135.173-390.993 135.173v0c-62.745 0-111.004 53.101-111.004 111.004 0 53.101 38.615 101.36 91.716 111.004 0 24.13 9.644 111.004 48.259 193.076 0 0 9.644 33.773 33.773 33.773h62.745c0 0 43.457 0 28.971-33.773 0 0-43.457-91.716-62.745-178.59 77.23 14.486 188.274 48.259 294.436 120.687 0 0 82.072 57.943 144.817-9.644 0 0 72.389-67.586 72.389-236.533 9.644-168.946-67.586-236.533-67.586-236.533zM458.537 350.316c-130.331 91.716-289.634 96.558-299.277 96.558-62.745 0-82.072 33.773-82.072 33.773-4.842 4.842-9.644 9.644-14.486 9.644s-4.842 0-9.644 0c-9.644-4.842-9.644-14.486-4.842-24.13 0 0 28.971-53.101 111.004-53.101 0 0 154.461-4.842 279.99-91.716 9.644-4.842 19.327-4.842 24.13 4.842s0 19.327-4.842 24.13zM574.383 731.666c-57.943 0-101.36-106.202-101.36-236.533s48.259-236.533 101.36-236.533 101.36 106.202 101.36 236.533c4.842 130.331-43.457 236.533-101.36 236.533z",
          "M521.282 413.061c-4.842 0-9.644 0-9.644 0v168.946c4.842 0 9.644 0 9.644 0 48.259 0 86.874-38.615 86.874-86.874-4.842-43.457-43.457-82.072-86.874-82.072z"
        ],
        "width": 724,
        "attrs": [],
        "isMulticolor": false,
        "isMulticolor2": false,
        "tags": [
          "speaker"
        ],
        "grid": 0
      },
      "attrs": [],
      "properties": {
        "order": 4,
        "id": 5,
        "name": "speaker",
        "prevSize": 32,
        "code": 59674
      },
      "setIdx": 0,
      "setId": 0,
      "iconIdx": 6
    },
    {
      "icon": {
        "paths": [
          "M398.69 864.525c-8.393 0-25.18 0-33.573 0s-46.164-33.573-67.148-50.361l-276.984-276.984c-20.984-20.984-20.984-50.361 0-71.343l20.984-20.984c20.984-20.984 50.361-20.984 71.343 0l230.82 230.82c20.984 20.984 50.361 20.984 71.343 0l495.214-495.214c20.984-20.984 50.361-20.984 71.343 0l20.984 20.984c20.984 20.984 20.984 50.361 0 71.343l-541.377 541.377c-16.786 20.984-54.557 50.361-62.95 50.361z"
        ],
        "attrs": [],
        "isMulticolor": false,
        "isMulticolor2": false,
        "tags": [
          "check"
        ],
        "grid": 0
      },
      "attrs": [],
      "properties": {
        "order": 3,
        "id": 6,
        "name": "check",
        "prevSize": 32,
        "code": 59675
      },
      "setIdx": 0,
      "setId": 0,
      "iconIdx": 7
    },
    {
      "icon": {
        "paths": [
          "M316.984 921.27v35.607c0 36.043-29.252 65.295-65.295 65.295s-65.295-29.252-65.295-65.295v-37.784c-39.874-8.358-75.829-23.245-105.081-45.706-52.497-40.396-81.314-100.99-81.314-170.725 0-36.043 29.252-65.295 65.295-65.295v0c36.043 0 65.295 29.252 65.295 65.295 0 29.513 9.925 51.539 30.384 67.21 22.114 16.977 55.806 26.379 94.895 26.379 37.697 0 125.453-9.055 125.541-93.502-0.087-50.669-11.753-61.638-124.060-117.183l-60.855-30.21c-109.695-54.151-196.407-96.898-196.407-234.017 0-69.561 28.73-130.415 80.966-171.073 29.427-22.984 65.469-38.132 105.43-46.577v-36.565c0-36.043 29.252-65.295 65.295-65.295s65.295 29.252 65.295 65.295v34.476c117.009 21.33 192.228 103.95 192.228 219.652 0 36.043-29.252 65.295-65.295 65.295s-65.295-29.252-65.295-65.295c0-85.667-85.841-94.895-122.754-94.895-38.829 0-72.434 9.489-94.634 26.815-20.633 16.193-30.645 38.48-30.645 68.168 0 51.191 10.447 61.116 123.625 117.009l60.855 30.21c109.782 54.239 196.494 97.072 196.843 234.191 0 115.18-76.351 197.539-195.015 218.521v0z"
        ],
        "width": 512,
        "attrs": [],
        "isMulticolor": false,
        "isMulticolor2": false,
        "tags": [
          "icon_pay_money"
        ],
        "grid": 0
      },
      "attrs": [],
      "properties": {
        "order": 2,
        "id": 7,
        "name": "money",
        "prevSize": 32,
        "code": 59673
      },
      "setIdx": 0,
      "setId": 0,
      "iconIdx": 8
    },
    {
      "icon": {
        "paths": [
          "M512 0c-282.829 0-512 229.24-512 512 0 282.829 229.171 512 512 512 282.76 0 512-229.171 512-512 0-282.76-229.24-512-512-512zM375.467 695.364v-366.728l341.607 183.364-341.607 183.364z"
        ],
        "attrs": [],
        "isMulticolor": false,
        "isMulticolor2": false,
        "tags": [
          "circle-video-play"
        ],
        "grid": 0
      },
      "attrs": [],
      "properties": {
        "order": 27,
        "id": 8,
        "name": "circle-video-play",
        "prevSize": 32,
        "code": 59671
      },
      "setIdx": 0,
      "setId": 0,
      "iconIdx": 9
    },
    {
      "icon": {
        "paths": [
          "M817.277 81.728l52.883-52.883c19.23-19.23 48.075-19.23 67.305 0l67.305 67.305c19.23 19.23 19.23 48.075 0 67.305l-52.883 52.883z",
          "M990.347 182.685l-134.61-134.61c-9.615-9.615-24.038-9.615-33.653 0l-451.906 418.253c0 0 0 0 0 0s0 4.808-4.808 4.808c0 0 0 4.808-4.808 4.808 0 0 0 0 0 0l-72.113 192.3c-4.808 9.615 0 19.23 4.808 24.038s9.615 9.615 19.23 9.615c0 0 4.808 0 4.808 0l206.723-57.69c0 0 0 0 0 0s4.808 0 4.808 0c0 0 4.808 0 4.808 0s0 0 0 0l451.906-418.253c4.808-4.808 9.615-9.615 9.615-19.23s0-19.23-4.808-24.038zM519.211 586.516l-100.958-100.958 418.253-384.601 100.958 100.958-418.253 384.601z",
          "M812.469 1014.385h-653.821c-86.535 0-158.648-72.113-158.648-158.648v-649.013c0-86.535 72.113-158.648 158.648-158.648h408.638c28.845 0 48.075 19.23 48.075 48.075s-19.23 48.075-48.075 48.075h-408.638c-33.653 0-57.69 28.845-57.69 62.498v649.013c0 33.653 28.845 62.498 62.498 62.498h649.013c33.653 0 62.498-28.845 62.498-62.498v-399.023c0-28.845 19.23-48.075 48.075-48.075s48.075 19.23 48.075 48.075v399.023c-4.808 86.535-72.113 158.648-158.648 158.648z"
        ],
        "attrs": [],
        "isMulticolor": false,
        "isMulticolor2": false,
        "tags": [
          "ad-edit"
        ],
        "grid": 0
      },
      "attrs": [],
      "properties": {
        "order": 26,
        "id": 9,
        "name": "ad-edit",
        "prevSize": 32,
        "code": 59672
      },
      "setIdx": 0,
      "setId": 0,
      "iconIdx": 10
    },
    {
      "icon": {
        "paths": [
          "M2531.218 173.221c-33.221-43.174-74.405-71.23-123.693-84.073-31.989-8.673-100.897-12.938-206.249-12.938h-233.783v894.565h13.27c32.226-1.375 114.877-14.644 147.673-107.721 0.664-4.549 2.275-19.051 2.275-27.867v0l-0.616-119.427v-0.569l-0.521-103.93h79.665c78.765 0 138.668-4.17 180.135-12.227 30.473-6.588 60.377-20.331 89.949-40.662 29.431-20.331 53.837-48.624 73.078-84.595 19.004-36.018 28.624-80.376 28.624-133.218 0.048-68.386-16.398-124.024-49.808-167.34zM2382.882 409.942c-13.317 19.099-31.326 33.080-54.405 42.131-23.080 8.91-68.67 13.411-137.247 13.411h-61.467l-0.711-243.735h50.946c62.652 0 104.356 1.801 125.019 5.782 28.008 4.976 51.42 17.772 69.807 38.15 18.34 20.236 27.629 46.065 27.629 77.486-0.048 25.117-6.825 47.439-19.572 66.775z",
          "M3208.208 173.221c-33.364-43.174-74.547-71.23-123.882-84.073-31.848-8.673-100.755-12.938-206.201-12.938h-233.83v894.565h13.365c32.273-1.375 114.83-14.644 147.72-107.721 0.521-4.549 2.228-19.051 2.228-27.867v0l-0.664-119.427v-0.569l-0.569-103.93h79.76c78.86 0 138.668-4.17 180.089-12.227 30.568-6.588 60.377-20.331 90.092-40.662 29.383-20.331 53.743-48.624 73.031-84.595 19.051-36.018 28.624-80.376 28.624-133.218 0.095-68.386-16.539-124.024-49.762-167.34zM3059.683 409.942c-13.175 19.099-31.184 33.080-54.311 42.131-23.080 8.91-68.67 13.411-137.199 13.411h-61.609l-0.711-243.735h50.994c62.652 0 104.262 1.801 124.971 5.782 28.056 4.976 51.467 17.772 69.807 38.15 18.483 20.236 27.535 46.065 27.535 77.486 0 25.117-6.588 47.439-19.478 66.775z",
          "M323.619 32.041c-178.714 0-323.685 144.924-323.685 323.638 0 173.974 137.247 315.581 309.278 323.163l-82.793 126.535c-44.122 120.233 74.12 160.515 74.12 160.515l256.91-386.668c55.591-57.913 89.854-136.677 89.854-223.547 0-178.761-144.924-323.638-323.685-323.638zM323.619 521.076c-92.414 0-167.34-74.926-167.34-167.388 0-92.414 74.926-167.34 167.34-167.34 92.461 0 167.388 74.974 167.388 167.34 0 92.461-74.926 167.388-167.388 167.388z",
          "M834.88 71.424h-143.502v124.545c0 0 1.185 6.729 9.289 9.526h99.807v608.651c0 0-26.492 177.814 151.511 158.951v-901.674h-117.105z",
          "M1908.349 969.306l-79.334-200.846c0.189 0.095 0.427 0.095 0.521 0.284l-256.484-650.214h-0.948c-1.706-3.697-3.223-7.346-4.834-11.185 0 0-14.929-34.454-80.566-35.828v0h-0.569c-1.137 0-2.037-0.095-3.223-0.095h-10.805v0.095h-27.724c-69.097 0-84.404 35.97-84.404 35.97-3.839 8.91-7.63 17.346-11.517 25.876h1.659l-103.598 270.086-168.904-11.611c0 0 1.043 140.611 77.959 248.237l-126.251 329.135h187.671l72.319-202.078h0.095l8.057-22.843c77.486 25.165 182.126 23.696 324.064-26.587l30.9 82.745 62.368 168.761h193.548zM1355.905 582.922l37.818-104.594 68.434-190.894 69.855 190.894 51.136 136.535c-40.473 13.886-147.104 40.189-227.243-31.942z"
        ],
        "width": 3258,
        "attrs": [],
        "isMulticolor": false,
        "isMulticolor2": false,
        "tags": [
          "logo-91app"
        ],
        "grid": 0
      },
      "attrs": [],
      "properties": {
        "order": 24,
        "id": 10,
        "prevSize": 32,
        "code": 59670,
        "name": "logo-91app"
      },
      "setIdx": 0,
      "setId": 0,
      "iconIdx": 11
    },
    {
      "icon": {
        "paths": [
          "M552.408 923.046c0 51.647-42.619 93.647-95.218 93.647s-95.218-42.001-95.218-93.647c0-51.703 42.619-93.647 95.218-93.647s95.218 41.945 95.218 93.647zM460.217 896.758h389.507c61.684 0 78.002-40.544 36.281-85.966l-81.535-85.18c-41.777-45.422-43.516-114.339-43.516-151.070v-64.769c0-210.624-133.125-381.432-308.364-381.432-175.295 0-308.477 170.809-308.477 381.432v67.236c0 38.692 1.739 107.442-40.095 152.808l-73.516 81.030c-41.777 45.366-27.533 85.909 34.15 85.909h395.563zM480.59 275.974c0 48.619-10.655 88.040-23.777 88.040h-8.524c-13.122 0-23.777-39.422-23.777-88.040v-169.688c0-48.619 10.655-78.731 23.777-78.731h8.524c13.122 0 23.777 30.113 23.777 78.731v169.688z"
        ],
        "width": 939,
        "attrs": [],
        "isMulticolor": false,
        "isMulticolor2": false,
        "tags": [
          "bell"
        ],
        "defaultCode": 59648,
        "grid": 0
      },
      "attrs": [],
      "properties": {
        "id": 11,
        "order": 1,
        "ligatures": "",
        "prevSize": 32,
        "code": 59648,
        "name": "bell"
      },
      "setIdx": 0,
      "setId": 0,
      "iconIdx": 12
    },
    {
      "icon": {
        "paths": [
          "M596.043 465.787l-430.799-430.799c-30.292-30.292-79.399-30.292-109.689 0s-30.292 79.399 0 109.689l376.006 376.006-376.006 375.903c-30.292 30.292-30.292 79.399 0 109.689 15.094 15.094 34.944 22.744 54.793 22.744s39.699-7.547 54.793-22.744l430.799-430.696c30.395-30.395 30.395-79.502 0.103-109.794z"
        ],
        "width": 652,
        "attrs": [],
        "isMulticolor": false,
        "isMulticolor2": false,
        "tags": [
          "arrow"
        ],
        "defaultCode": 59649,
        "grid": 0
      },
      "attrs": [],
      "properties": {
        "id": 12,
        "order": 2,
        "ligatures": "",
        "prevSize": 32,
        "code": 59649,
        "name": "arrow"
      },
      "setIdx": 0,
      "setId": 0,
      "iconIdx": 13
    },
    {
      "icon": {
        "paths": [
          "M960.016 1013.136l-4.224-217.863c-21.185-125.636-149.509-298.314-323.019-364.044 53.122-44.161 87.619-113.988 87.619-188.358 0-132.996-107.844-242.824-240.776-242.824-133.060 0-240.84 106.756-240.84 239.752 0 74.498 34.497 139.717 87.619 183.878-173.51 65.666-301.898 246.344-322.955 371.98l-3.456 217.479h960.032z"
        ],
        "width": 960,
        "attrs": [],
        "isMulticolor": false,
        "isMulticolor2": false,
        "tags": [
          "people"
        ],
        "defaultCode": 59650,
        "grid": 0
      },
      "attrs": [],
      "properties": {
        "id": 13,
        "order": 3,
        "ligatures": "",
        "prevSize": 32,
        "code": 59650,
        "name": "people"
      },
      "setIdx": 0,
      "setId": 0,
      "iconIdx": 14
    },
    {
      "icon": {
        "paths": [
          "M184.475 205.066c-23.55 0-49.636 10.326-57.969 32.306l-125.117 320.4c-8.454 21.919 3.986 32.185 27.475 32.185h951.719c23.55 0 36.352-14.19 28.562-36.472l-115.757-317.743c-7.85-22.222-33.574-30.736-57.003-30.736h-651.911zM846.953 119.501h-684.398c-33.332 0-60.384-27.052-60.384-60.384s27.052-60.384 60.384-60.384h684.398c33.393 0 60.384 27.052 60.384 60.384s-26.992 60.384-60.384 60.384zM846.953 504.452h-684.398c-23.61 0-42.753 19.142-42.753 42.813v427.643c0 23.731 19.142 42.813 42.753 42.813h384.951v-270.885c0-15.7 19.142-28.562 42.813-28.562h128.317c23.61 0 42.753 12.862 42.753 28.562v270.885h85.564c23.61 0 42.753-19.081 42.753-42.813v-427.643c0-23.67-19.142-42.813-42.753-42.813z"
        ],
        "attrs": [],
        "isMulticolor": false,
        "isMulticolor2": false,
        "tags": [
          "shop"
        ],
        "defaultCode": 59651,
        "grid": 0
      },
      "attrs": [],
      "properties": {
        "id": 14,
        "order": 4,
        "ligatures": "",
        "prevSize": 32,
        "code": 59651,
        "name": "shop"
      },
      "setIdx": 0,
      "setId": 0,
      "iconIdx": 15
    },
    {
      "icon": {
        "paths": [
          "M512 1024c-282.351 0-512-229.687-512-512s229.687-512 512-512 512 229.687 512 512c0 282.351-229.649 512-512 512zM512 76.435c-240.158 0-435.565 195.368-435.565 435.565 0 240.158 195.407 435.565 435.565 435.565s435.565-195.407 435.565-435.565c0-240.197-195.407-435.565-435.565-435.565zM364.71 731.751c-14.675 0-29.351-5.58-40.549-16.777-22.396-22.396-22.396-58.664 0-81.060l324.849-324.849c22.396-22.396 58.664-22.396 81.060 0s22.396 58.664 0 81.060l-324.849 324.849c-11.159 11.198-25.836 16.777-40.511 16.777zM689.559 731.751c-14.675 0-29.351-5.58-40.549-16.777l-324.849-324.849c-22.396-22.396-22.396-58.664 0-81.060s58.664-22.396 81.060 0l324.849 324.849c22.396 22.396 22.396 58.664 0 81.060-11.159 11.198-25.836 16.777-40.511 16.777z"
        ],
        "attrs": [],
        "isMulticolor": false,
        "isMulticolor2": false,
        "tags": [
          "circle-cancel"
        ],
        "defaultCode": 59652,
        "grid": 0
      },
      "attrs": [],
      "properties": {
        "id": 15,
        "order": 5,
        "ligatures": "",
        "prevSize": 32,
        "code": 59652,
        "name": "circle-cancel"
      },
      "setIdx": 0,
      "setId": 0,
      "iconIdx": 16
    },
    {
      "icon": {
        "paths": [
          "M690.334 757.318l-1.123-76.533c-10.984-64.947-77.295-154.229-166.977-188.225 27.462-22.771 45.303-58.853 45.303-97.299 0-68.675-55.646-125.484-124.441-125.484-68.715 0-124.441 55.164-124.441 123.92 0 38.447 17.84 72.123 45.262 94.974-89.642 33.957-155.993 127.328-166.897 192.314l-0.882 76.172c-76.774-68.274-125.484-167.538-125.484-278.108 0-205.505 167.178-372.722 372.681-372.722s372.681 167.217 372.681 372.722c0 110.65-48.79 209.954-125.684 278.269zM1028.097 929.227l-208.030-195.441c-0.521-0.521-1.243-0.641-1.804-1.123 49.151-72.404 77.936-159.72 77.936-253.613 0-249.764-203.179-452.903-452.863-452.903-249.724 0-452.863 203.139-452.863 452.903 0 249.684 203.139 452.823 452.863 452.823 112.655 0 215.607-41.614 294.906-109.929l207.468 194.92c11.627 10.905 26.419 16.317 41.173 16.317 16.036 0 31.992-6.374 43.819-18.963 22.771-24.175 21.569-62.301-2.606-84.992z"
        ],
        "width": 1063,
        "attrs": [],
        "isMulticolor": false,
        "isMulticolor2": false,
        "tags": [
          "search"
        ],
        "defaultCode": 59653,
        "grid": 0
      },
      "attrs": [],
      "properties": {
        "id": 16,
        "order": 6,
        "ligatures": "",
        "prevSize": 32,
        "code": 59653,
        "name": "search"
      },
      "setIdx": 0,
      "setId": 0,
      "iconIdx": 17
    },
    {
      "icon": {
        "paths": [
          "M512 1024c-282.351 0-512-229.687-512-512s229.649-512 512-512 512 229.649 512 512-229.649 512-512 512zM512 76.435c-240.158 0-435.565 195.407-435.565 435.565s195.407 435.565 435.565 435.565 435.565-195.407 435.565-435.565-195.407-435.565-435.565-435.565zM471.413 741.305c-15.172 0-29.771-2.026-40.549-12.803l-167.202-165.215c-22.396-22.396-22.396-57.67 0-80.066s58.664-21.86 81.060 0.534l123.404 123.634 206.527-241.077c20.637-24.038 56.829-26.828 80.83-6.23 24.038 20.599 26.828 56.829 6.267 80.869l-246.846 284.262c-10.319 12.153-25.3 16.090-41.275 16.090-0.726 0-1.453 0-2.217 0z"
        ],
        "attrs": [],
        "isMulticolor": false,
        "isMulticolor2": false,
        "tags": [
          "circle-success"
        ],
        "defaultCode": 59654,
        "grid": 0
      },
      "attrs": [],
      "properties": {
        "id": 17,
        "order": 7,
        "ligatures": "",
        "prevSize": 32,
        "code": 59654,
        "name": "circle-success"
      },
      "setIdx": 0,
      "setId": 0,
      "iconIdx": 18
    },
    {
      "icon": {
        "paths": [
          "M575.45 765.092c0 29.834-24.187 54.021-54.021 54.021s-54.021-24.187-54.021-54.021c0-29.834 24.187-54.021 54.021-54.021s54.021 24.187 54.021 54.021zM571.836 589.122c-6.13 42.784-28.798 77.75-50.407 77.75s-44.277-35.006-50.407-77.75l-17.090-119.475c-6.090-42.784 24.24-77.79 67.457-77.79v0c43.217 0 73.586 35.006 67.457 77.79l-17.012 119.475zM983.847 983.454c-0.196 0-0.511 0-0.786 0h-942.909c-14.025 0-27.030-8.996-34.024-21.805-6.994-12.729-6.994-28.995 0-41.763l471.454-857.694c14.025-25.497 54.021-25.655 68.046-0.157l468.037 851.093c5.893 7.228 9.469 17.68 9.469 27.973 0 22.787-17.601 42.353-39.288 42.353zM108.199 904.879h806.816l-403.408-733.661-403.408 733.661z"
        ],
        "attrs": [],
        "isMulticolor": false,
        "isMulticolor2": false,
        "tags": [
          "triangle-alert"
        ],
        "defaultCode": 59655,
        "grid": 0
      },
      "attrs": [],
      "properties": {
        "id": 18,
        "order": 8,
        "ligatures": "",
        "prevSize": 32,
        "code": 59655,
        "name": "triangle-alert"
      },
      "setIdx": 0,
      "setId": 0,
      "iconIdx": 19
    },
    {
      "icon": {
        "paths": [
          "M253.916 930.010c-79.988 0-149.442-25.52-195.688-71.852-39.566-39.651-60.462-92.406-60.376-152.526 0-35.455 28.775-64.145 64.23-64.145 0 0 0.085 0 0.085 0 35.54 0.085 64.145 28.86 64.145 64.315 0 26.034 7.451 46.16 22.866 61.661 21.667 21.581 59.777 34.085 104.738 34.085 38.366 0 127.69-9.249 127.69-95.66 0-51.813-11.733-62.946-125.206-119.040l-61.147-30.317c-110.304-54.467-197.4-97.458-197.4-234.568-0.085-60.376 20.982-113.387 60.805-153.382 46.417-46.417 115.786-72.023 195.26-72.023 151.583 0 253.409 90.608 253.409 225.405 0 35.455-28.775 64.23-64.23 64.23s-64.23-28.775-64.23-64.23c0-87.438-87.438-96.944-124.949-96.944-44.533 0-82.557 12.504-104.395 34.342-15.672 15.757-23.208 36.226-23.208 62.517 0 51.983 11.733 63.117 125.719 119.383l61.232 30.317c109.877 54.296 196.63 97.116 196.801 234.14 0 134.198-102.94 224.292-256.15 224.292zM249.634 211.66c-35.455 0-64.23-28.775-64.23-64.23v-81.359c0-35.455 28.775-64.23 64.23-64.23s64.23 28.775 64.23 64.23v81.359c0 35.455-28.775 64.23-64.23 64.23zM249.634 1025.841c-35.455 0-64.23-28.775-64.23-64.23v-81.272c0-35.455 28.775-64.23 64.23-64.23s64.23 28.775 64.23 64.23v81.272c0 35.455-28.775 64.23-64.23 64.23zM1097.814 342.518h-428.201c-23.637 0-42.82-19.184-42.82-42.82s19.184-42.82 42.82-42.82h428.201c23.637 0 42.82 19.184 42.82 42.82s-19.184 42.82-42.82 42.82zM1097.814 599.438h-428.201c-23.637 0-42.82-19.184-42.82-42.82s19.184-42.82 42.82-42.82h428.201c23.637 0 42.82 19.184 42.82 42.82s-19.184 42.82-42.82 42.82zM1097.814 856.359h-428.201c-23.637 0-42.82-19.184-42.82-42.82s19.184-42.82 42.82-42.82h428.201c23.637 0 42.82 19.184 42.82 42.82s-19.184 42.82-42.82 42.82z"
        ],
        "width": 1195,
        "attrs": [],
        "isMulticolor": false,
        "isMulticolor2": false,
        "tags": [
          "account"
        ],
        "defaultCode": 59656,
        "grid": 0
      },
      "attrs": [],
      "properties": {
        "id": 19,
        "order": 9,
        "ligatures": "",
        "prevSize": 32,
        "code": 59656,
        "name": "account"
      },
      "setIdx": 0,
      "setId": 0,
      "iconIdx": 20
    },
    {
      "icon": {
        "paths": [
          "M400.116 409.072h225.679c-14.382 16.884-29.391 33.767-44.398 50.026l-420.217 479.624c1.251-4.94 2.501-9.942 3.752-14.32l85.044-330.171c5.003-21.261-0.625-35.018-6.254-43.147-8.13-10.568-20.636-16.884-37.519-18.134h-204.48c47.525-51.902 95.050-103.804 142.573-156.331l125.69-137.572c63.158-68.786 125.69-137.572 188.848-206.356l-101.302 323.918c-0.625 0.625-0.625 1.251-0.625 1.876-3.127 13.131-0.625 25.638 6.879 35.018 5.69 6.753 16.321 15.571 36.332 15.571zM289.434 1043.525c-7.379 0-14.758-2.564-20.761-7.879-12.945-11.506-14.132-31.203-2.626-44.148l400.395-451.484c11.443-13.007 31.203-14.194 44.148-2.626 12.881 11.506 14.132 31.203 2.626 44.148l-400.395 451.546c-6.19 6.879-14.82 10.443-23.387 10.443v0z"
        ],
        "width": 723,
        "attrs": [],
        "isMulticolor": false,
        "isMulticolor2": false,
        "tags": [
          "activity"
        ],
        "defaultCode": 59657,
        "grid": 0
      },
      "attrs": [],
      "properties": {
        "id": 20,
        "order": 10,
        "ligatures": "",
        "prevSize": 32,
        "code": 59657,
        "name": "activity"
      },
      "setIdx": 0,
      "setId": 0,
      "iconIdx": 21
    },
    {
      "icon": {
        "paths": [
          "M140.215 804.571l277.431-292.571 191.927 146.286 123.099-108.837 193.829 255.122h-786.286zM295.058 175.397c67.657 0 122.587 54.93 122.587 122.661 0 67.657-54.93 122.587-122.587 122.587s-122.587-54.93-122.587-122.587c0-67.73 54.93-122.661 122.587-122.661v0zM896 0h-768c-70.656 0-128 57.344-128 128v768c0 70.656 57.344 128 128 128h768c70.656 0 128-57.344 128-128v-768c0-70.656-57.344-128-128-128v0z"
        ],
        "attrs": [],
        "isMulticolor": false,
        "isMulticolor2": false,
        "tags": [
          "ad"
        ],
        "defaultCode": 59658,
        "grid": 0
      },
      "attrs": [],
      "properties": {
        "id": 21,
        "order": 11,
        "ligatures": "",
        "prevSize": 32,
        "code": 59658,
        "name": "ad"
      },
      "setIdx": 0,
      "setId": 0,
      "iconIdx": 22
    },
    {
      "icon": {
        "paths": [
          "M422.912 731.429h-140.946v-438.857h140.946v438.857zM634.441 731.429h-141.019v-731.429h141.019v731.429zM845.824 731.429h-141.019v-585.143h141.019v585.143zM1057.353 1024h-1022.098c-19.529 0-35.255-16.384-35.255-36.571v-841.143c0-20.187 15.726-36.571 35.255-36.571 19.456 0 35.255 16.384 35.255 36.571v804.571h986.843c19.456 0 35.182 16.384 35.182 36.571s-15.726 36.571-35.182 36.571z"
        ],
        "width": 1097,
        "attrs": [],
        "isMulticolor": false,
        "isMulticolor2": false,
        "tags": [
          "chart"
        ],
        "defaultCode": 59659,
        "grid": 0
      },
      "attrs": [],
      "properties": {
        "id": 22,
        "order": 12,
        "ligatures": "",
        "prevSize": 32,
        "code": 59659,
        "name": "chart"
      },
      "setIdx": 0,
      "setId": 0,
      "iconIdx": 23
    },
    {
      "icon": {
        "paths": [
          "M398.404 466.49c-123.19 0-223.432-100.243-223.432-223.357s100.243-223.357 223.432-223.357c18.494 0 36.761 2.189 54.349 6.643 15.323 3.774 30.646 9.436 45.441 16.833 18.644 9.36 26.193 32.006 16.833 50.65s-32.006 26.117-50.65 16.908c-9.737-4.906-19.776-8.605-29.816-11.096-11.7-2.944-23.853-4.453-36.156-4.453-81.598 0-147.948 66.351-147.948 147.873s66.351 147.873 147.948 147.873c15.852 0 31.25-2.416 45.894-7.247 19.701-6.643 41.139 4.227 47.63 24.080 6.491 19.776-4.302 41.139-24.080 47.63-22.192 7.322-45.592 11.021-69.445 11.021zM37.742 856.364c-20.833 0-37.742-16.908-37.742-37.742 0-231.736 182.444-427.616 398.404-427.616 20.833 0 37.742 16.908 37.742 37.742s-16.908 37.742-37.742 37.742c-175.047 0-322.92 161.309-322.92 352.132 0 20.833-16.908 37.742-37.742 37.742zM958.344 269.477c0 124.020-100.62 224.489-224.489 224.489-124.020 0-224.489-100.469-224.489-224.489 0-123.945 100.544-224.489 224.489-224.489 123.869 0 224.489 100.544 224.489 224.489zM1170 1004.237c0-150.968-76.994-318.618-193.843-400.895-69.294-48.762-152.629-67.558-242.227-67.558-240.869 0.075-436.222 242.001-436.222 468.453h872.292z"
        ],
        "width": 1170,
        "attrs": [],
        "isMulticolor": false,
        "isMulticolor2": false,
        "tags": [
          "customer"
        ],
        "defaultCode": 59660,
        "grid": 0
      },
      "attrs": [],
      "properties": {
        "id": 23,
        "order": 13,
        "ligatures": "",
        "prevSize": 32,
        "code": 59660,
        "name": "customer"
      },
      "setIdx": 0,
      "setId": 0,
      "iconIdx": 24
    },
    {
      "icon": {
        "paths": [
          "M472.73 482.462c0 38.046-30.878 68.923-68.923 68.923h-334.769c-38.046 0-68.923-30.878-68.923-68.923v-413.538c0-38.046 30.878-68.923 68.923-68.923h334.769c38.046 0 68.923 30.878 68.923 68.923v413.538zM1102.884 955.077c0 38.046-30.878 68.923-68.923 68.923h-334.769c-38.046 0-68.923-30.878-68.923-68.923v-413.538c0-38.046 30.878-68.923 68.923-68.923h334.769c38.046 0 68.923 30.878 68.923 68.923v413.538zM472.73 955.077c0 38.046-30.878 68.923-68.923 68.923h-334.769c-38.046 0-68.923-30.878-68.923-68.923v-177.231c0-38.046 30.878-68.923 68.923-68.923h334.769c38.046 0 68.923 30.878 68.923 68.923v177.231zM1102.884 246.154c0 38.046-30.878 68.923-68.923 68.923h-334.769c-38.046 0-68.923-30.878-68.923-68.923v-177.231c0-38.046 30.878-68.923 68.923-68.923h334.769c38.046 0 68.923 30.878 68.923 68.923v177.231z"
        ],
        "width": 1103,
        "attrs": [],
        "isMulticolor": false,
        "isMulticolor2": false,
        "tags": [
          "dashboard"
        ],
        "defaultCode": 59661,
        "grid": 0
      },
      "attrs": [],
      "properties": {
        "id": 24,
        "order": 14,
        "ligatures": "",
        "prevSize": 32,
        "code": 59661,
        "name": "dashboard"
      },
      "setIdx": 0,
      "setId": 0,
      "iconIdx": 25
    },
    {
      "icon": {
        "paths": [
          "M768 1024h-622.592c-84.224 0-145.408-57.088-145.408-135.765v-632.235c0-23.552 19.115-42.667 42.667-42.667s42.667 19.115 42.667 42.667v632.235c0 37.291 32.341 50.432 60.075 50.432h622.592c23.552 0 42.667 19.115 42.667 42.667s-19.115 42.667-42.667 42.667zM426.667 512h426.667c23.467 0 42.667 19.115 42.667 42.667 0 23.467-19.2 42.667-42.667 42.667h-426.667c-23.552 0-42.667-19.2-42.667-42.667 0-23.552 19.115-42.667 42.667-42.667v0zM426.667 341.333h426.667c23.467 0 42.667 19.115 42.667 42.667s-19.2 42.667-42.667 42.667h-426.667c-23.552 0-42.667-19.115-42.667-42.667s19.115-42.667 42.667-42.667v0zM426.667 170.667h426.667c23.467 0 42.667 19.115 42.667 42.667s-19.2 42.667-42.667 42.667h-426.667c-23.552 0-42.667-19.115-42.667-42.667s19.115-42.667 42.667-42.667v0zM963.925 768c29.867 0 60.075-16.128 60.075-52.139v-654.763c0-33.707-26.795-61.099-60.075-61.099h-647.851c-33.195 0-60.075 27.392-60.075 61.099v654.763c0 36.011 30.208 52.139 60.075 52.139h647.851z"
        ],
        "attrs": [],
        "isMulticolor": false,
        "isMulticolor2": false,
        "tags": [
          "order"
        ],
        "defaultCode": 59662,
        "grid": 0
      },
      "attrs": [],
      "properties": {
        "id": 25,
        "order": 28,
        "ligatures": "",
        "prevSize": 32,
        "code": 59662,
        "name": "order"
      },
      "setIdx": 0,
      "setId": 0,
      "iconIdx": 26
    },
    {
      "icon": {
        "paths": [
          "M321.099 393.262c-48.595 0-87.907-39.382-87.907-87.978 0-48.525 39.312-87.837 87.907-87.837 48.455 0 87.907 39.312 87.907 87.837 0 48.595-39.453 87.978-87.907 87.978v0zM451.273-0.211l-410.633 25.176-39.593 409.929 571.749 589.331 450.156-435.036-571.679-589.401z"
        ],
        "attrs": [],
        "isMulticolor": false,
        "isMulticolor2": false,
        "tags": [
          "product"
        ],
        "defaultCode": 59663,
        "grid": 0
      },
      "attrs": [],
      "properties": {
        "id": 26,
        "order": 16,
        "ligatures": "",
        "prevSize": 32,
        "code": 59663,
        "name": "product"
      },
      "setIdx": 0,
      "setId": 0,
      "iconIdx": 27
    },
    {
      "icon": {
        "paths": [
          "M126.317 631.55v-209.775h-11.955c-21.804 0-39.85 18.045-39.85 40.601v128.571c0 22.557 18.045 40.601 39.85 40.601h11.955zM654.211 925.535c0-11.278-9.775-20.301-21.128-20.301h-96.992c-11.203 0-20.978 9.022-20.978 20.301 0 12.030 9.775 21.053 20.978 21.053h96.992c11.354 0 21.128-9.022 21.128-21.053v0zM1094.813 590.949v-128.571c0-22.557-18.045-40.601-39.85-40.601h-12.105v209.775h12.105c21.804 0 39.85-18.045 39.85-40.601v0zM1170.001 462.377v128.571c0 63.909-51.955 115.038-115.038 115.038h-49.699c-20.225 0-36.842-16.541-36.842-37.594v-279.699c-37.594-180.451-198.421-311.278-384.136-311.278-183.534 0-344.361 130.828-383.534 311.278v280.451c0 121.053 99.324 219.549 220.376 219.549h26.992c15.038-34.587 48.947-58.646 87.97-58.646h96.992c52.632 0 95.564 42.857 95.564 95.488s-42.933 95.488-95.564 95.488h-96.992c-39.022 0-72.933-24.060-87.97-57.895h-26.992c-149.624 0-273.759-112.030-292.557-257.143h-14.211c-63.233 0-114.361-51.128-114.361-115.038v-128.571c0-63.909 51.128-115.038 114.361-115.038h20.225c54.962-201.504 239.925-344.361 449.699-344.361 211.955 0 396.166 142.857 451.128 344.361h19.549c63.083 0 115.038 51.128 115.038 115.038v0zM1094.797 462.377v128.571c0 22.557-18.045 40.601-39.85 40.601h-12.030v-209.775h12.030c21.804 0 39.85 18.045 39.85 40.601zM126.317 421.776v209.775h-11.955c-21.804 0-39.85-18.045-39.85-40.601v-128.571c0-22.557 18.045-40.601 39.85-40.601h11.955z"
        ],
        "width": 1170,
        "attrs": [],
        "isMulticolor": false,
        "isMulticolor2": false,
        "tags": [
          "service"
        ],
        "defaultCode": 59664,
        "grid": 0
      },
      "attrs": [],
      "properties": {
        "id": 27,
        "order": 17,
        "ligatures": "",
        "prevSize": 32,
        "code": 59664,
        "name": "service"
      },
      "setIdx": 0,
      "setId": 0,
      "iconIdx": 28
    },
    {
      "icon": {
        "paths": [
          "M230.837 0c-40.229 0-84.846 30.72-99.182 68.389l-115.2 302.080c-14.336 37.669 6.875 68.389 47.031 68.389h969.143c40.229 0 62.245-31.013 48.713-68.974l-106.277-300.91c-13.458-37.961-57.344-68.974-97.573-68.974h-646.656zM950.343 1024h-804.571c-20.187 0-36.571-16.384-36.571-36.571v-402.286c0-20.187 16.384-36.571 36.571-36.571s36.571 16.384 36.571 36.571v365.714h731.429v-365.714c0-20.187 16.384-36.571 36.571-36.571s36.571 16.384 36.571 36.571v402.286c0 20.187-16.384 36.571-36.571 36.571zM767.486 950.857c0 40.375-32.695 73.143-73.143 73.143h-73.143c-40.375 0-73.143-32.768-73.143-73.143v-219.429c0-40.375 32.768-73.143 73.143-73.143h73.143c40.448 0 73.143 32.768 73.143 73.143v219.429z"
        ],
        "width": 1097,
        "attrs": [],
        "isMulticolor": false,
        "isMulticolor2": false,
        "tags": [
          "shop-options"
        ],
        "defaultCode": 59665,
        "grid": 0
      },
      "attrs": [],
      "properties": {
        "id": 28,
        "order": 18,
        "ligatures": "",
        "prevSize": 32,
        "code": 59665,
        "name": "shop-options"
      },
      "setIdx": 0,
      "setId": 0,
      "iconIdx": 29
    },
    {
      "icon": {
        "paths": [
          "M585 979.992l585-936h-1170z"
        ],
        "width": 1170,
        "attrs": [],
        "isMulticolor": false,
        "isMulticolor2": false,
        "tags": [
          "triangle"
        ],
        "defaultCode": 59666,
        "grid": 0
      },
      "attrs": [],
      "properties": {
        "id": 29,
        "order": 19,
        "ligatures": "",
        "prevSize": 32,
        "code": 59666,
        "name": "triangle"
      },
      "setIdx": 0,
      "setId": 0,
      "iconIdx": 30
    },
    {
      "icon": {
        "paths": [
          "M1024 897.024l-385.251-385.024 385.024-385.251-127.090-126.749-384.797 385.251-385.024-384.91-126.862 126.976 385.138 384.797-384.797 385.366 126.976 126.521 384.682-385.024 385.138 384.797 126.862-126.749z"
        ],
        "attrs": [],
        "isMulticolor": false,
        "isMulticolor2": false,
        "tags": [
          "cancel"
        ],
        "defaultCode": 59667,
        "grid": 0
      },
      "attrs": [],
      "properties": {
        "id": 30,
        "order": 22,
        "ligatures": "",
        "prevSize": 32,
        "code": 59667,
        "name": "cancel"
      },
      "setIdx": 0,
      "setId": 0,
      "iconIdx": 31
    },
    {
      "icon": {
        "paths": [
          "M1024 488.727h-465.455v-488.726h-93.091v488.726h-465.455v93.091h465.455v442.182h93.091v-442.182h465.455z"
        ],
        "attrs": [],
        "isMulticolor": false,
        "isMulticolor2": false,
        "tags": [
          "upload-plus"
        ],
        "defaultCode": 59668,
        "grid": 0
      },
      "attrs": [],
      "properties": {
        "id": 31,
        "order": 21,
        "ligatures": "",
        "prevSize": 32,
        "code": 59668,
        "name": "upload-plus"
      },
      "setIdx": 0,
      "setId": 0,
      "iconIdx": 32
    },
    {
      "icon": {
        "paths": [
          "M512 0c-282.726 0-512 229.222-512 512s229.274 512 512 512c282.778 0 512-229.222 512-512s-229.222-512-512-512zM549.581 753.203v20.941c0 21.197-17.203 38.4-38.4 38.4s-38.4-17.203-38.4-38.4v-22.221c-23.45-4.915-44.595-13.67-61.798-26.88-30.874-23.757-47.821-59.392-47.821-100.403 0-21.197 17.203-38.4 38.4-38.4 0 0 0 0 0 0 21.197 0 38.4 17.203 38.4 38.4 0 17.357 5.837 30.31 17.869 39.526 13.005 9.984 32.819 15.514 55.808 15.514 22.17 0 73.779-5.325 73.83-54.989-0.051-29.798-6.912-36.25-72.96-68.915l-35.789-17.766c-64.512-31.846-115.507-56.986-115.507-137.626 0-40.909 16.896-76.698 47.616-100.608 17.306-13.517 38.502-22.426 62.003-27.392v-21.504c0-21.197 17.203-38.4 38.4-38.4s38.4 17.203 38.4 38.4v20.275c68.813 12.544 113.050 61.133 113.050 129.178 0 21.197-17.203 38.4-38.4 38.4s-38.4-17.203-38.4-38.4c0-50.381-50.483-55.808-72.192-55.808-22.835 0-42.598 5.581-55.654 15.77-12.134 9.523-18.022 22.63-18.022 40.090 0 30.106 6.144 35.942 72.704 68.813l35.789 17.766c64.563 31.898 115.558 57.088 115.763 137.728 0 67.738-44.902 116.173-114.688 128.512z"
        ],
        "attrs": [],
        "isMulticolor": false,
        "isMulticolor2": false,
        "tags": [
          "payment"
        ],
        "defaultCode": 59668,
        "grid": 0
      },
      "attrs": [],
      "properties": {
        "id": 32,
        "order": 20,
        "ligatures": "",
        "prevSize": 32,
        "code": 59669,
        "name": "payment"
      },
      "setIdx": 0,
      "setId": 0,
      "iconIdx": 33
    }
  ],
  "height": 1024,
  "metadata": {
    "name": "icon91"
  },
  "preferences": {
    "showGlyphs": true,
    "showQuickUse": true,
    "showQuickUse2": true,
    "showSVGs": true,
    "fontPref": {
      "prefix": "icon-",
      "metadata": {
        "fontFamily": "icon91",
        "majorVersion": 1,
        "minorVersion": 0
      },
      "metrics": {
        "emSize": 1024,
        "baseline": 6.25,
        "whitespace": 50
      },
      "embed": false,
      "autoHost": false,
      "noie8": false,
      "ie7": false,
      "showSelector": true,
      "selector": "class",
      "showMetrics": true,
      "showMetadata": true,
      "showVersion": true,
      "classSelector": ".icon"
    },
    "imagePref": {
      "prefix": "icon-",
      "png": true,
      "useClassSelector": true,
      "color": 0,
      "bgColor": 16777215,
      "classSelector": ".icon",
      "height": 32
    },
    "historySize": 100,
    "showCodes": true,
    "gridSize": 16,
    "quickUsageToken": {
      "91icon": "ODBlZTA1ZTU0MDg2MmE1MDA4NmZhMTExOGExNTE5YWUjMSMxNDUzNzExODI0IyMj"
    },
    "showLiga": true
  }
}